20060801,2
20070701,3
20070804,3
20080604,4
20080801,3.5
20081101,5
20090802,8
20100401,6
20100603,8
20110201,7.5
20110301,10
20110402,6.5
20120603,1
20130403,3.5
20130701,1.5
20130803,1
20130902,6.5
20131001,1
20131002,7
20140203,2
20140512,2.5
20140610,5
20140616,4
20140703,3
20140707,4
20140813,7
20140814,4
20140818,6.5
20140924,7
20141103,5
20141125,3.5
20150113,3.5
20150203,6
20150323,3
20150406,5
20150504,7
20150505,7
20150511,7.5
20150512,4
20150514,7.5
20150519,3
20150630,1.5
20150703,5.5
20150921,7
20151001,8.5
20160104,5
20160107,7.5
20160111,4
20160201,7
20160222,3.5
20160307,3
20160404,4
20160502,2
20160510,2
20160525,1
20160603,1
20160705,3.5
20160808,1
20160819,2
20161003,2
20161114,0.5
